{
  "project_info": {
    "project_number": "262913484777",
    "firebase_url": "https://smartattendy.firebaseio.com",
    "project_id": "smartattendy",
    "storage_bucket": "smartattendy.appspot.com"
  },
  "client": [
    {
      "client_info": {
        "mobilesdk_app_id": "1:262913484777:android:883697174973caef",
        "android_client_info": {
          "package_name": "com.example.irfan.smartattendy"
        }
      },
      "oauth_client": [
        {
          "client_id": "262913484777-b9rl6ui99n4c1nohu0qa5r9rm0f7uo6b.apps.googleusercontent.com",
          "client_type": 1,
          "android_info": {
            "package_name": "com.example.irfan.smartattendy",
            "certificate_hash": "2ae1d46a1cb696c5313900d64a420c87b116c300"
          }
        },
        {
          "client_id": "262913484777-b6t7klr79rmnk49kjfphnbbc6akkfatc.apps.googleusercontent.com",
          "client_type": 3
        }
      ],
      "api_key": [
        {
          "current_key": "AIzaSyC9KLc1D1vhEgqoJ4y7fIhgu1wICeDqad0"
        }
      ],
      "services": {
        "analytics_service": {
          "status": 1
        },
        "appinvite_service": {
          "status": 2,
          "other_platform_oauth_client": [
            {
              "client_id": "262913484777-b6t7klr79rmnk49kjfphnbbc6akkfatc.apps.googleusercontent.com",
              "client_type": 3
            }
          ]
        },
        "ads_service": {
          "status": 2
        }
      }
    }
  ],
  "configuration_version": "1"
}